date,Michael,James,John,Robert,David,William,Mary,Christopher,Joseph,Richard,Daniel,Thomas,Matthew,Jennifer,Charles,Anthony,Patricia,Linda,Mark,Elizabeth,Joshua,Steven,Andrew,Kevin,Brian,Barbara,Jessica,Jason,Susan,Timothy,Paul,Kenneth,Lisa,Ryan,Sarah,Karen,Jeffrey,Donald,Ashley,Eric,Jacob,Nicholas,Jonathan,Ronald,Michelle,Kimberly,Nancy,Justin,Sandra,Amanda,Brandon,Stephanie,Emily,Melissa,Gary,Edward,Stephen,Scott,George,Donna
2018-09-01,0,0,0,0,0,0,0,0,0,0,0,0,0,0,0,0,0,0,0,0,0,0,0,0,0,0,0,0,0,0,0,0,0,0,0,0,0,0,0,0,0,0,0,0,0,0,0,0,0,0,0,0,0,0,0,0,0,0,0,0
2018-09-02,0,1,1,0,1,0,0,0,0,1,1,1,0,0,1,1,0,0,0,1,1,0,0,1,1,0,0,0,0,0,1,0,1,0,0,0,1,1,1,1,0,0,1,0,1,1,0,1,0,0,1,1,0,0,1,0,1,1,0,0
2018-09-03,1,2,1,2,1,1,2,1,0,1,0,0,2,0,2,1,0,0,2,2,1,2,0,1,1,2,1,1,2,0,1,2,2,2,1,0,2,1,0,1,0,1,1,1,1,2,2,1,1,1,2,2,0,2,2,1,1,1,0,1
2018-09-04,3,1,3,0,3,2,2,2,3,2,0,0,1,0,1,0,0,1,1,0,3,3,3,1,1,1,2,1,2,1,0,3,2,1,2,3,2,2,3,3,2,3,3,3,3,2,3,3,3,2,1,2,2,1,1,3,2,1,1,0
2018-09-05,1,2,3,4,3,2,4,3,1,1,4,3,4,1,1,1,2,2,2,1,1,2,4,1,2,3,4,1,3,4,3,3,2,3,4,1,2,3,2,1,2,3,4,1,3,4,4,1,2,3,1,3,4,1,1,2,2,4,4,3
2018-09-06,2,1,2,2,1,4,2,1,5,3,3,4,3,3,1,2,3,1,5,4,4,3,5,3,3,3,2,5,4,4,2,4,3,5,1,3,5,1,4,1,1,1,5,4,4,3,5,4,5,4,3,5,4,4,4,3,5,1,5,2
2018-09-07,4,3,6,2,3,2,2,2,6,5,3,2,6,1,4,4,6,4,4,3,4,2,1,3,5,2,2,1,6,6,4,5,6,6,5,6,5,5,1,5,3,2,2,3,4,1,4,6,1,5,5,2,5,4,5,6,1,6,6,5
2018-09-08,7,2,2,1,5,1,5,3,5,3,5,7,4,6,1,3,5,3,2,2,1,6,7,2,3,7,3,5,3,3,6,3,6,7,5,4,1,1,1,5,4,1,1,6,6,4,6,2,2,7,3,4,3,7,4,4,7,4,3,4
2018-09-09,8,2,5,6,2,6,5,5,5,5,5,8,6,6,5,6,7,6,7,2,8,3,7,6,6,4,5,2,7,8,8,6,6,5,2,3,4,2,5,3,5,8,3,7,3,8,2,8,7,5,6,5,3,2,4,5,4,6,8,8
2018-09-10,3,6,9,7,4,4,8,3,8,8,4,5,7,5,2,4,4,7,8,7,2,8,8,3,3,4,7,2,6,6,6,7,7,8,3,4,6,2,9,7,5,9,7,8,4,9,9,2,6,4,3,6,3,9,5,7,2,3,7,2
2018-09-11,3,10,5,10,4,7,6,7,2,6,5,2,9,5,3,7,3,4,4,3,2,7,2,9,7,3,10,4,4,4,2,10,6,9,4,8,3,5,10,2,6,2,9,5,9,5,7,10,6,10,10,8,10,4,9,2,5,6,9,9
2018-09-12,3,11,7,7,7,6,5,8,4,8,8,8,9,6,3,5,2,2,7,3,3,4,5,7,10,8,5,10,5,10,3,5,3,3,8,3,6,7,7,2,5,8,6,7,9,10,4,3,3,5,10,3,4,10,7,4,5,5,10,3
2018-09-13,10,5,4,9,6,6,11,8,11,12,7,11,3,3,10,5,10,12,11,12,12,6,12,8,3,12,5,4,8,12,11,10,11,12,8,4,5,6,12,3,5,10,10,11,7,10,9,11,12,12,11,5,4,12,10,11,4,6,8,3
2018-09-14,5,9,5,13,5,9,9,5,12,5,10,5,11,6,7,7,7,6,9,13,12,6,4,8,8,9,12,8,4,3,3,13,12,10,12,8,9,6,10,12,12,3,5,3,6,3,10,9,9,12,10,4,4,7,3,11,6,4,6,10
2018-09-15,7,4,4,8,3,9,4,10,10,13,13,5,6,13,13,5,9,12,8,11,10,9,10,4,12,12,3,14,7,3,14,14,13,12,5,3,6,5,9,4,13,8,8,6,8,4,8,13,4,5,13,3,14,6,13,3,6,14,5,12
2018-09-16,4,4,15,8,10,15,13,9,11,6,3,8,12,3,5,10,11,4,11,13,15,5,14,13,4,9,13,6,7,6,14,3,15,4,15,11,7,10,15,6,5,6,15,11,15,6,11,15,14,4,10,15,11,6,13,8,4,13,12,9
2018-09-17,7,7,5,15,8,4,5,15,9,13,7,14,4,10,7,7,12,14,15,6,13,12,5,7,12,5,4,15,6,8,12,8,15,12,9,5,4,6,12,8,7,10,11,6,12,7,16,5,4,7,13,15,15,11,8,8,16,13,15,14
2018-09-18,7,16,11,10,10,16,12,11,10,8,13,11,17,13,17,8,5,7,17,5,6,12,5,14,9,16,13,6,11,7,8,10,10,9,17,7,7,7,13,15,5,13,12,10,15,11,12,15,6,9,6,12,13,12,9,16,11,9,5,11
2018-09-19,12,8,9,10,6,18,10,18,17,16,15,6,13,9,6,18,12,8,11,9,5,8,17,11,15,8,7,12,12,17,8,9,14,13,7,10,16,17,13,16,11,11,15,6,6,16,15,6,12,18,6,16,10,9,17,5,14,12,10,13
2018-09-20,18,6,10,7,17,12,6,19,11,8,18,11,15,16,9,17,9,14,12,16,5,5,13,15,5,17,15,15,19,16,16,9,11,10,19,5,7,13,6,16,15,17,6,19,11,6,17,10,9,16,14,7,14,15,16,13,16,19,5,8
2018-09-21,6,18,19,17,9,12,9,20,6,18,8,9,13,15,12,9,13,13,7,9,18,12,16,14,17,7,9,15,20,14,13,19,11,10,14,15,16,15,19,15,18,19,12,18,6,14,19,10,12,16,5,20,11,15,16,16,14,9,8,6
2018-09-22,13,4,14,4,14,5,17,8,16,15,15,16,12,9,13,8,19,19,12,19,19,10,15,13,16,11,12,13,18,15,7,15,8,6,18,9,13,16,9,4,7,6,16,14,18,9,10,5,7,10,4,15,17,6,15,5,14,10,13,18
2018-09-23,11,12,12,4,9,18,15,5,12,16,15,18,8,11,10,12,14,6,7,16,9,16,13,5,5,14,18,7,9,17,6,15,6,10,12,16,9,17,10,14,9,4,6,6,5,11,18,14,11,15,5,12,9,6,12,8,8,15,18,11
2018-09-24,11,5,17,7,7,9,8,13,6,14,16,6,7,4,4,11,17,9,6,11,6,7,6,13,10,7,14,17,5,4,9,6,12,11,17,17,16,14,6,5,10,11,4,10,14,10,13,15,7,15,5,8,11,13,13,8,17,10,17,9
2018-09-25,7,12,7,6,13,5,9,15,8,12,11,12,4,6,12,11,5,12,7,8,11,14,12,7,10,13,16,4,4,14,15,8,10,4,14,16,12,4,13,13,14,6,14,7,15,10,15,12,16,10,9,9,11,5,5,6,4,9,14,13
2018-09-26,7,7,12,15,9,3,3,10,14,7,14,5,7,4,4,11,13,6,4,9,12,12,9,14,15,11,12,5,7,13,7,8,5,15,4,3,6,4,5,10,12,12,3,9,12,7,11,7,8,4,4,6,7,12,12,9,14,10,9,11
2018-09-27,4,11,11,6,12,10,13,6,6,3,12,4,12,11,6,14,8,4,13,14,7,5,10,9,7,7,3,11,14,4,6,11,12,13,13,8,7,10,13,7,11,7,12,8,9,10,8,4,13,3,12,12,10,9,10,10,13,10,13,8
2018-09-28,6,5,7,4,6,3,7,10,13,8,4,3,9,11,7,6,11,13,5,12,6,4,3,10,5,12,11,4,8,4,4,5,7,7,13,9,9,10,6,10,9,5,9,5,8,8,4,5,6,7,7,5,12,6,9,10,7,7,4,5
2018-09-29,8,11,4,9,7,12,8,6,10,9,10,5,5,12,6,11,5,6,7,11,3,6,3,5,3,12,3,8,4,12,10,5,7,3,8,8,10,10,7,6,10,5,6,8,3,8,7,11,7,5,7,8,10,4,11,9,6,5,10,5
2018-09-30,8,3,2,11,7,7,2,7,11,11,10,7,6,3,10,2,10,7,6,9,6,9,7,11,11,7,2,7,3,11,8,7,11,4,11,3,3,11,2,3,3,4,11,3,6,4,11,4,6,9,4,3,10,7,9,3,3,6,11,2
2018-10-01,4,3,10,3,9,8,8,4,4,2,4,8,5,5,8,10,9,2,6,6,3,8,4,5,5,8,7,9,7,6,10,3,5,2,5,3,6,9,5,2,2,4,5,10,10,5,6,6,10,4,7,8,10,7,4,3,7,8,10,8
2018-10-02,4,5,5,5,6,4,8,9,6,5,3,3,4,8,2,9,8,3,9,6,2,5,4,3,5,5,4,4,7,9,4,6,8,9,6,9,4,9,5,3,9,8,8,2,6,8,7,9,7,6,9,5,8,6,5,5,7,6,8,5
2018-10-03,5,4,4,6,3,7,4,3,4,4,4,5,7,7,5,5,7,6,2,6,4,6,8,5,6,7,8,5,8,5,2,6,5,7,6,5,5,5,2,6,6,2,5,5,8,4,6,5,6,2,3,4,7,5,5,3,5,6,8,3
2018-10-04,7,4,2,3,2,3,2,5,7,5,5,4,3,4,1,6,5,5,1,1,3,6,2,1,1,2,2,3,3,5,6,4,2,2,2,1,4,4,1,3,2,6,5,1,7,4,5,6,3,4,3,1,5,4,2,5,6,4,6,5
2018-10-05,3,5,2,3,2,5,3,2,6,1,5,5,5,6,3,5,3,4,1,1,1,1,6,1,1,2,2,2,5,2,5,5,5,4,3,6,6,4,1,3,2,6,6,5,2,5,1,1,1,1,6,3,2,1,2,4,3,3,5,4
2018-10-06,4,5,3,4,4,4,5,5,3,4,3,5,4,4,4,3,1,2,2,2,5,4,5,4,1,4,1,5,4,5,5,2,5,2,5,5,3,2,1,5,5,4,1,4,5,2,3,1,5,4,3,2,2,4,5,5,4,5,5,1
2018-10-07,2,1,2,2,2,4,4,3,2,1,3,4,2,1,2,4,4,3,2,4,4,3,1,4,1,1,3,4,1,2,2,2,2,1,2,4,4,1,1,4,3,2,2,2,4,4,1,2,4,2,4,1,4,2,1,3,2,2,2,3
2018-10-08,3,1,2,3,0,3,1,2,1,2,2,0,3,3,0,2,0,0,0,3,2,0,0,1,0,1,0,3,3,1,3,3,0,2,1,2,3,0,3,3,0,2,1,1,3,1,0,1,3,2,1,3,1,2,0,3,2,1,0,1
2018-10-09,0,0,1,2,1,2,1,2,0,0,2,1,0,0,2,2,2,1,1,1,2,2,1,2,2,1,1,2,1,0,2,0,2,1,1,2,2,1,0,2,0,0,2,0,1,1,0,2,0,2,2,1,2,2,0,0,1,1,2,1
2018-10-10,0,1,1,1,1,1,1,1,0,0,1,1,1,0,0,0,1,0,0,1,0,0,0,0,1,0,1,1,0,1,1,0,1,1,1,0,1,0,1,1,1,0,0,1,1,0,0,1,0,1,0,0,1,1,1,1,1,1,0,0
